50000; 5; 0; 7
6000:V
15000:V
3000:V
4000:V
4000:CV
5000:CV
6500:CV
13000:CV
17500:CV
25000:CV
4500:C
5000:C
7000:C
12500:C
16000:C
29000:C
6000:N
7000:N
8500:N
11000:N
16500:N
18000:N
23000:N
29500:N